<svg xmlns="http://www.w3.org/2000/svg" width="20" height="20" fill="none" viewBox="0 0 20 20">
    <path fill="#494949" fill-rule="evenodd" d="M1.667 10c0-4.6 3.741-8.333 8.333-8.333l.233.003c4.493.123 8.1 3.808 8.1 8.33 0 4.592-3.733 8.333-8.333 8.333-4.592 0-8.333-3.741-8.333-8.333zm9.983 3.333c.242-.25.242-.641-.008-.883L9.183 10l2.459-2.45c.25-.242.25-.642.008-.883-.25-.25-.642-.25-.883 0L7.858 9.558c-.116.117-.183.275-.183.442 0 .167.067.325.183.442l2.909 2.891c.116.125.275.184.433.184.167 0 .325-.059.45-.184z" clip-rule="evenodd"/>
</svg>
