<svg xmlns="http://www.w3.org/2000/svg" width="24" height="24" fill="none" viewBox="0 0 24 24">
    <path fill="#575757" d="M21.982 0H2.018C.903 0 0 .904 0 2.018v19.963C0 23.096.904 24 2.018 24h19.963C23.096 24 24 23.096 24 21.982V2.018C24 .903 23.096 0 21.982 0z"/>
    <path fill="#F3F3F3" d="M12.77 18.651v-6.54h2.2l.33-2.555h-2.53V7.94c0-.739.205-1.243 1.267-1.243h1.352V4.372c-.655-.07-1.315-.104-1.974-.1-1.95 0-3.286 1.19-3.286 3.378v1.886H7.92v2.575h2.208v6.54h2.64z"/>
</svg>
