<svg xmlns="http://www.w3.org/2000/svg" width="16" height="16" fill="none" viewBox="0 0 16 16">
    <path fill="#2F2F2F" d="M13.656 0H2.344C1.052 0 0 1.052 0 2.344v11.312C0 14.948 1.052 16 2.344 16h4.719v-5.656H5.188V7.53h1.875V5.625c0-1.55 1.261-2.813 2.812-2.813h2.844v2.813H9.875v1.906h2.844l-.469 2.813H9.875V16h3.781C14.948 16 16 14.948 16 13.656V2.344C16 1.052 14.948 0 13.656 0z"/>
</svg>
