<svg xmlns="http://www.w3.org/2000/svg" width="62" height="47" fill="none" viewBox="0 0 62 47">
    <path fill="#BABABA" d="M5.684 37.716c.448.08.828.316 1.14.708.312.392.468.836.468 1.332 0 .424-.112.808-.336 1.152-.216.336-.532.604-.948.804-.416.192-.9.288-1.452.288H1.22v-8.34H4.4c.568 0 1.056.096 1.464.288.408.192.716.452.924.78.208.32.312.68.312 1.08 0 .48-.128.88-.384 1.2-.256.32-.6.556-1.032.708zm-3.096-.552H4.28c.448 0 .796-.1 1.044-.3.256-.208.384-.504.384-.888 0-.376-.128-.668-.384-.876-.248-.216-.596-.324-1.044-.324H2.588v2.388zm1.848 3.72c.464 0 .828-.112 1.092-.336.264-.224.396-.536.396-.936 0-.408-.14-.732-.42-.972-.28-.24-.652-.36-1.116-.36h-1.8v2.604h1.848zm7.21 1.224c-.623 0-1.187-.14-1.691-.42-.504-.288-.9-.688-1.188-1.2-.288-.52-.432-1.12-.432-1.8 0-.672.148-1.268.444-1.788.296-.52.7-.92 1.212-1.2.512-.28 1.084-.42 1.716-.42.632 0 1.204.14 1.716.42.512.28.916.68 1.212 1.2.296.52.444 1.116.444 1.788 0 .672-.152 1.268-.456 1.788-.304.52-.72.924-1.248 1.212-.52.28-1.096.42-1.728.42zm0-1.188c.353 0 .68-.084.985-.252.312-.168.564-.42.756-.756.192-.336.288-.744.288-1.224s-.092-.884-.276-1.212c-.184-.336-.428-.588-.732-.756-.304-.168-.632-.252-.984-.252s-.68.084-.984.252c-.296.168-.532.42-.708.756-.176.328-.264.732-.264 1.212 0 .712.18 1.264.54 1.656.368.384.828.576 1.38.576zm7.653 1.188c-.624 0-1.188-.14-1.692-.42-.504-.288-.9-.688-1.188-1.2-.288-.52-.432-1.12-.432-1.8 0-.672.148-1.268.444-1.788.296-.52.7-.92 1.212-1.2.512-.28 1.084-.42 1.716-.42.632 0 1.204.14 1.716.42.512.28.916.68 1.212 1.2.296.52.444 1.116.444 1.788 0 .672-.152 1.268-.456 1.788-.304.52-.72.924-1.248 1.212-.52.28-1.096.42-1.728.42zm0-1.188c.352 0 .68-.084.984-.252.312-.168.564-.42.756-.756.192-.336.288-.744.288-1.224s-.092-.884-.276-1.212c-.184-.336-.428-.588-.732-.756-.304-.168-.632-.252-.984-.252s-.68.084-.984.252c-.296.168-.532.42-.708.756-.176.328-.264.732-.264 1.212 0 .712.18 1.264.54 1.656.368.384.828.576 1.38.576zm7.4-2.22l3.049 3.3H27.9l-2.448-2.844V42h-1.368v-8.88h1.368v5.16l2.4-2.892h1.896L26.7 38.7zm12.033-3.42c.52 0 .984.108 1.392.324.416.216.74.536.972.96.24.424.36.936.36 1.536V42H40.1v-3.696c0-.592-.148-1.044-.444-1.356-.296-.32-.7-.48-1.212-.48s-.92.16-1.224.48c-.296.312-.444.764-.444 1.356V42H35.42v-3.696c0-.592-.148-1.044-.444-1.356-.296-.32-.7-.48-1.212-.48s-.92.16-1.224.48c-.296.312-.444.764-.444 1.356V42h-1.368v-6.612h1.368v.756c.224-.272.508-.484.852-.636.344-.152.712-.228 1.104-.228.528 0 1 .112 1.416.336.416.224.736.548.96.972.2-.4.512-.716.936-.948.424-.24.88-.36 1.368-.36zm4.009 3.384c0-.664.136-1.252.408-1.764.28-.512.656-.908 1.128-1.188.48-.288 1.008-.432 1.584-.432.52 0 .972.104 1.356.312.392.2.704.452.936.756v-.96h1.38V42h-1.38v-.984c-.232.312-.548.572-.948.78-.4.208-.856.312-1.368.312-.568 0-1.088-.144-1.56-.432-.472-.296-.848-.704-1.128-1.224-.272-.528-.408-1.124-.408-1.788zm5.412.024c0-.456-.096-.852-.288-1.188-.184-.336-.428-.592-.732-.768-.304-.176-.632-.264-.984-.264s-.68.088-.984.264c-.304.168-.552.42-.744.756-.184.328-.276.72-.276 1.176 0 .456.092.856.276 1.2.192.344.44.608.744.792.312.176.64.264.984.264.352 0 .68-.088.984-.264.304-.176.548-.432.732-.768.192-.344.288-.744.288-1.2zm4.545-2.34c.2-.336.464-.596.792-.78.336-.192.732-.288 1.188-.288v1.416h-.348c-.536 0-.944.136-1.224.408-.272.272-.408.744-.408 1.416V42H51.33v-6.612h1.368v.96zM58.55 38.7L61.6 42h-1.848l-2.448-2.844V42h-1.368v-8.88h1.368v5.16l2.4-2.892H61.6L58.551 38.7zM37.647 0H24.353C23.059 0 22 1.043 22 2.319V22.55c0 .55.323 1.072.823 1.304.53.232 1.118.174 1.56-.174l.029-.029L31 18.174l6.588 5.478.03.03c.264.202.588.318.911.318.206 0 .442-.058.647-.174.5-.232.824-.753.824-1.304V2.319C40 1.043 38.941 0 37.647 0z"/>
    <path fill="#fff" d="M36.223 7.327c-.07-.203-.258-.348-.48-.367l-3.031-.263-1.199-2.678c-.088-.196-.29-.323-.513-.323-.224 0-.425.127-.513.323l-1.198 2.678-3.032.263c-.222.02-.41.164-.48.367-.069.203-.005.425.164.566l2.29 1.918-.675 2.842c-.05.208.035.425.217.55.098.067.212.101.327.101.1 0 .197-.025.286-.076L31 11.736l2.613 1.492c.191.11.432.1.614-.025.181-.126.266-.342.217-.55l-.676-2.842 2.29-1.918c.17-.14.234-.363.165-.566z"/>
</svg>
