<svg xmlns="http://www.w3.org/2000/svg" width="14" height="10" fill="none" viewBox="0 0 14 10">
    <rect width="14" height="2" fill="#2F2F2F" rx="1"/>
    <rect width="14" height="2" y="4" fill="#2F2F2F" rx="1"/>
    <rect width="14" height="2" y="8" fill="#2F2F2F" rx="1"/>
</svg>
