<svg xmlns="http://www.w3.org/2000/svg" width="16" height="16" fill="none" viewBox="0 0 16 16">
    <path fill="#2F2F2F" fill-rule="evenodd" d="M4 0C1.79 0 0 1.79 0 4v5.241c0 2.196 1.77 3.979 3.96 4L3.5 16l4.33-2.759H12c2.21 0 4-1.79 4-4V4c0-2.21-1.79-4-4-4H4z" clip-rule="evenodd"/>
    <rect width="2" height="6" x="7" y="5" fill="#fff" rx="1"/>
    <rect width="2" height="2" x="7" y="2" fill="#fff" rx="1"/>
</svg>
