<svg xmlns="http://www.w3.org/2000/svg" width="24" height="24" fill="none" viewBox="0 0 24 24">
    <g clip-path="url(#clip0)">
        <path fill="#575757" d="M21.982 0H2.018C.903 0 0 .904 0 2.018v19.963C0 23.096.904 24 2.018 24h19.963C23.096 24 24 23.096 24 21.982V2.018C24 .903 23.096 0 21.982 0z"/>
        <path fill="#F3F3F3" d="M18.32 7.8c-.185.052-.377.077-.57.072v-.06c.3-.239 1.05-.97 1.147-1.313.045-.145 0-.197 0-.201l-.957.403-.807.36c-.304-.31-.666-.553-1.067-.718-.4-.164-.83-.246-1.262-.24-1.668 0-3.02 1.18-3.02 2.637-.002.336.04.671.125.997 0-.077 0 .077 0 0-1.288-.107-2.54-.478-3.678-1.09C5.81 7.436 5.664 6.572 5.664 6.572c-.38.404-.578 1.74-.19 2.786.255.507.63.943 1.094 1.271-.265-.001-.527-.044-.78-.125-.195-.057-.379-.147-.544-.266-.234.573.238 1.614 1.058 2.337.402.311.858.548 1.344.699l-1.36.04c-.077 1.324 2.773 2.107 2.773 2.107-.802.648-1.796 1.011-2.826 1.034-.526-.001-1.05-.077-1.554-.226 1.399 1.213 3.202 1.859 5.054 1.808 5.079-.262 7.953-4.638 8.106-8.934.277-.176.53-.387.751-.63.316-.332.587-.704.808-1.106 0 0-.751.343-1.078.432z"/>
    </g>
    <defs>
        <clipPath id="clip0">
            <path fill="#fff" d="M0 0H24V24H0z"/>
        </clipPath>
    </defs>
</svg>
