<svg xmlns="http://www.w3.org/2000/svg" width="24" height="24" fill="none" viewBox="0 0 24 24">
    <path fill="#575757" d="M21.982 0H2.018C.903 0 0 .904 0 2.018v19.963C0 23.096.904 24 2.018 24h19.963C23.096 24 24 23.096 24 21.982V2.018C24 .903 23.096 0 21.982 0z"/>
    <path fill="#F3F3F3" d="M14.937 19.684H8.575c-1.355-.002-2.654-.541-3.612-1.499-.958-.958-1.497-2.257-1.5-3.611v-5.6c.003-1.355.542-2.653 1.5-3.611.958-.958 2.257-1.498 3.612-1.5h6.362c1.353.006 2.648.546 3.604 1.504.955.957 1.492 2.254 1.495 3.607v5.6c-.003 1.352-.54 2.65-1.495 3.607-.956.957-2.251 1.498-3.604 1.503zM8.575 5.002c-1.054 0-2.065.418-2.81 1.163-.746.745-1.166 1.755-1.167 2.81v5.598c.002 1.054.422 2.064 1.167 2.808.746.745 1.756 1.164 2.81 1.165h6.362c1.053-.001 2.063-.42 2.808-1.165.744-.744 1.163-1.754 1.164-2.808V8.974c0-1.053-.42-2.063-1.164-2.808-.745-.744-1.755-1.163-2.808-1.164H8.575z"/>
    <path fill="#F3F3F3" d="M11.748 16.322c-.9 0-1.78-.267-2.528-.767s-1.331-1.21-1.676-2.042c-.344-.831-.434-1.746-.259-2.629.176-.882.61-1.693 1.246-2.33.636-.636 1.447-1.069 2.33-1.244.882-.176 1.796-.086 2.628.259.831.344 1.542.927 2.042 1.675.5.748.766 1.628.766 2.528 0 1.206-.48 2.363-1.333 3.216-.853.853-2.01 1.332-3.216 1.334zm0-7.961c-.676 0-1.336.2-1.898.575-.562.376-1 .91-1.258 1.534s-.326 1.311-.194 1.974c.132.662.458 1.27.936 1.748.478.478 1.087.803 1.75.934s1.35.063 1.973-.196c.624-.259 1.158-.697 1.532-1.26.375-.562.575-1.223.574-1.898-.001-.905-.361-1.773-1.002-2.412-.64-.64-1.508-1-2.413-1zM17.173 7.363c0 .187-.055.37-.159.525-.104.156-.251.277-.424.348-.172.072-.362.09-.546.054-.183-.036-.351-.126-.483-.259-.132-.132-.222-.3-.259-.483-.036-.183-.018-.373.054-.546.072-.173.193-.32.348-.424.155-.104.338-.16.525-.16.25 0 .49.1.668.278.177.177.276.417.276.667z"/>
</svg>
