<svg xmlns="http://www.w3.org/2000/svg" width="17" height="23" fill="none" viewBox="0 0 17 23">
    <path fill="#464646" d="M14.778 0H2.222C1 0 0 1 0 2.222v19.39c0 .527.306 1.027.778 1.25.5.221 1.055.166 1.472-.168l.028-.027 6.222-5.25 6.222 5.25.028.027c.25.195.556.306.861.306.195 0 .417-.056.611-.167.472-.222.778-.722.778-1.25V2.223C17 1 16 0 14.778 0z"/>
    <path fill="#fff" d="M13.432 7.021c-.065-.194-.243-.332-.453-.35l-2.862-.253-1.132-2.566c-.084-.189-.274-.31-.485-.31-.211 0-.401.121-.485.31L6.884 6.418 4.02 6.67c-.21.02-.388.157-.453.351-.066.195-.005.408.154.543l2.163 1.838-.638 2.723c-.046.2.034.408.205.528.092.064.2.097.309.097.094 0 .187-.024.27-.073l2.469-1.43 2.468 1.43c.18.105.408.096.58-.024.17-.12.251-.328.204-.528l-.638-2.723 2.164-1.838c.159-.135.22-.348.154-.543z"/>
</svg>
