<svg xmlns="http://www.w3.org/2000/svg" width="24" height="24" fill="none" viewBox="0 0 24 24">
    <path stroke="#000" stroke-linecap="round" stroke-linejoin="round" stroke-width="2" d="M20 21v-2c0-1.06-.421-2.078-1.172-2.828C18.078 15.422 17.061 15 16 15H8c-1.06 0-2.078.421-2.828 1.172C4.422 16.922 4 17.939 4 19v2M12 11c2.21 0 4-1.79 4-4s-1.79-4-4-4-4 1.79-4 4 1.79 4 4 4z"/>
</svg>
