<svg xmlns="http://www.w3.org/2000/svg" width="16" height="16" fill="none" viewBox="0 0 16 16">
    <rect width="16" height="16" fill="#2F2F2F" rx="2"/>
    <path fill="#fff" d="M11.333 7.667l-5.5 3.175v-6.35l5.5 3.175z"/>
</svg>
